\select@language {magyar} \contentsline {figure}{\numberline {1}{\ignorespaces }}{2}{figure.1}
\select@language {magyar} \contentsline {figure}{\numberline {2}{\ignorespaces $G$, k\IeC {\"o}z\IeC {\'e}pen $K_4$ \IeC {\'e}s $\overline {G}$}}{2}{figure.2}
\select@language {magyar} \contentsline {figure}{\numberline {3}{\ignorespaces $K_5$ (Kuratowski) gr\IeC {\'a}f, k\IeC {\'e}kkel jel\IeC {\"o}lve: r\IeC {\'e}szgr\IeC {\'a}f, fesz\IeC {\'\i }t\IeC {\H o} r\IeC {\'e}szgr\IeC {\'a}f \IeC {\'e}s fesz\IeC {\'\i }tett r\IeC {\'e}szgr\IeC {\'a}f}}{3}{figure.3}
\select@language {magyar} \contentsline {figure}{\numberline {4}{\ignorespaces Az els\IeC {\H o} k\IeC {\'e}t gr\IeC {\'a}f izomorfak, m\IeC {\'\i }g a 3. nem}}{3}{figure.4}
\select@language {magyar} \contentsline {figure}{\numberline {5}{\ignorespaces Szaggatottan jel\IeC {\"o}lve a hosszabb utat \IeC {\'e}s a k\IeC {\"o}rt}}{4}{figure.5}
\select@language {magyar} \contentsline {figure}{\numberline {6}{\ignorespaces A $K_4$ s\IeC {\'\i }kbarajzolhat\IeC {\'o}, balra a s\IeC {\'\i }kbarajzolt v\IeC {\'a}ltozata, $t = 4$ tartom\IeC {\'a}nnyal.}}{5}{figure.6}
\select@language {magyar} \contentsline {figure}{\numberline {7}{\ignorespaces $K_{3,3}$-as Kuratowski-gr\IeC {\'a}f}}{6}{figure.7}
\select@language {magyar} \contentsline {figure}{\numberline {8}{\ignorespaces $K_{3,3}$ \IeC {\'e}s a Petersen-gr\IeC {\'a}f}}{6}{figure.8}
\select@language {magyar} \contentsline {figure}{\numberline {9}{\ignorespaces Sztereografikus projekci\IeC {\'o}}}{6}{figure.9}
\select@language {magyar} \contentsline {figure}{\numberline {10}{\ignorespaces }}{7}{figure.10}
\select@language {magyar} \contentsline {figure}{\numberline {11}{\ignorespaces }}{8}{figure.11}
\select@language {magyar} \contentsline {figure}{\numberline {12}{\ignorespaces Egy Euler-s\IeC {\'e}t\IeC {\'a}ban nem a kezd\IeC {\H o}- \IeC {\'e}s v\IeC {\'e}gpont (b\IeC {\'a}r lehetne), valamint egy lehets\IeC {\'e}ges kezd\IeC {\H o}pont}}{8}{figure.12}
\select@language {magyar} \contentsline {figure}{\numberline {13}{\ignorespaces }}{9}{figure.13}
\select@language {magyar} \contentsline {figure}{\numberline {14}{\ignorespaces Az els\IeC {\H o} h\IeC {\'a}rom Mycielski-gr\IeC {\'a}f}}{11}{figure.14}
\select@language {magyar} \contentsline {figure}{\numberline {15}{\ignorespaces }}{13}{figure.15}
\select@language {magyar} \contentsline {figure}{\numberline {16}{\ignorespaces }}{14}{figure.16}
