\relax 
\providecommand\hyper@newdestlabel[2]{}
\catcode \string ``=12
\providecommand\HyperFirstAtBeginDocument{\AtBeginDocument}
\HyperFirstAtBeginDocument{\ifx\hyper@anchor\@undefined
\global\let\oldcontentsline\contentsline
\gdef\contentsline#1#2#3#4{\oldcontentsline{#1}{#2}{#3}}
\global\let\oldnewlabel\newlabel
\gdef\newlabel#1#2{\newlabelxx{#1}#2}
\gdef\newlabelxx#1#2#3#4#5#6{\oldnewlabel{#1}{{#2}{#3}}}
\AtEndDocument{\ifx\hyper@anchor\@undefined
\let\contentsline\oldcontentsline
\let\newlabel\oldnewlabel
\fi}
\fi}
\global\let\hyper@last\relax 
\gdef\HyperFirstAtBeginDocument#1{#1}
\providecommand\HyField@AuxAddToFields[1]{}
\providecommand\HyField@AuxAddToCoFields[2]{}
\@writefile{toc}{\contentsline {section}{\numberline {1}Alapfogalmak}{2}{section.1}}
\@writefile{loe}{\contentsline {definition}{\numberline {1.1}Defin\IeC {\'\i }ci\IeC {\'o}}{2}{definition.1.1}}
\@writefile{default}{\indexentry{gráf}{2}}
\@writefile{loe}{\contentsline {definition}{\numberline {1.2}Defin\IeC {\'\i }ci\IeC {\'o}}{2}{definition.1.2}}
\@writefile{default}{\indexentry{hurokél}{2}}
\@writefile{default}{\indexentry{párhuzamos}{2}}
\@writefile{loe}{\contentsline {definition}{\numberline {1.3}Defin\IeC {\'\i }ci\IeC {\'o}}{2}{definition.1.3}}
\@writefile{default}{\indexentry{egyszerű gráf}{2}}
\@writefile{loe}{\contentsline {definition}{\numberline {1.4}Defin\IeC {\'\i }ci\IeC {\'o}}{2}{definition.1.4}}
\@writefile{default}{\indexentry{szomszédos}{2}}
\@writefile{loe}{\contentsline {definition}{\numberline {1.5}Defin\IeC {\'\i }ci\IeC {\'o}}{2}{definition.1.5}}
\@writefile{default}{\indexentry{izolált pont}{2}}
\@writefile{loe}{\contentsline {definition}{\numberline {1.6}Defin\IeC {\'\i }ci\IeC {\'o}}{2}{definition.1.6}}
\@writefile{default}{\indexentry{fokszám}{2}}
\@writefile{loe}{\contentsline {definition}{\numberline {1.7}Defin\IeC {\'\i }ci\IeC {\'o}}{2}{definition.1.7}}
\@writefile{default}{\indexentry{reguláris gráf}{2}}
\@writefile{lof}{\contentsline {figure}{\numberline {1}{\ignorespaces }}{2}{figure.1}}
\@writefile{loe}{\contentsline {theorem}{\numberline {1.1}T\IeC {\'e}tel}{2}{theorem.1.1}}
\@writefile{loe}{\contentsline {definition}{\numberline {1.8}Defin\IeC {\'\i }ci\IeC {\'o}}{2}{definition.1.8}}
\@writefile{default}{\indexentry{teljes gráf}{2}}
\@writefile{loe}{\contentsline {definition}{\numberline {1.9}Defin\IeC {\'\i }ci\IeC {\'o}}{2}{definition.1.9}}
\@writefile{default}{\indexentry{komplementer}{2}}
\@writefile{lof}{\contentsline {figure}{\numberline {2}{\ignorespaces $G$, k\IeC {\"o}z\IeC {\'e}pen $K_4$ \IeC {\'e}s $\overline  {G}$}}{2}{figure.2}}
\@writefile{toc}{\contentsline {subsection}{\numberline {1.1}R\IeC {\'e}szgr\IeC {\'a}fok \IeC {\'e}s Izomorfia}{3}{subsection.1.1}}
\@writefile{loe}{\contentsline {definition}{\numberline {1.10}Defin\IeC {\'\i }ci\IeC {\'o}}{3}{definition.1.10}}
\@writefile{default}{\indexentry{részgráf}{3}}
\@writefile{loe}{\contentsline {definition}{\numberline {1.11}Defin\IeC {\'\i }ci\IeC {\'o}}{3}{definition.1.11}}
\@writefile{default}{\indexentry{feszítő részgráf}{3}}
\@writefile{loe}{\contentsline {definition}{\numberline {1.12}Defin\IeC {\'\i }ci\IeC {\'o}}{3}{definition.1.12}}
\@writefile{default}{\indexentry{feszített részgráf}{3}}
\@writefile{lof}{\contentsline {figure}{\numberline {3}{\ignorespaces $K_5$ (Kuratowski) gr\IeC {\'a}f, k\IeC {\'e}kkel jel\IeC {\"o}lve: r\IeC {\'e}szgr\IeC {\'a}f, fesz\IeC {\'\i }t\IeC {\H o} r\IeC {\'e}szgr\IeC {\'a}f \IeC {\'e}s fesz\IeC {\'\i }tett r\IeC {\'e}szgr\IeC {\'a}f}}{3}{figure.3}}
\@writefile{loe}{\contentsline {definition}{\numberline {1.13}Defin\IeC {\'\i }ci\IeC {\'o}}{3}{definition.1.13}}
\@writefile{default}{\indexentry{izomorf}{3}}
\@writefile{lof}{\contentsline {figure}{\numberline {4}{\ignorespaces Az els\IeC {\H o} k\IeC {\'e}t gr\IeC {\'a}f izomorfak, m\IeC {\'\i }g a 3. nem}}{3}{figure.4}}
\@writefile{default}{\indexentry{tranzitív}{3}}
\@writefile{toc}{\contentsline {subsection}{\numberline {1.2}F\IeC {\'a}k}{3}{subsection.1.2}}
\@writefile{loe}{\contentsline {definition}{\numberline {1.14}Defin\IeC {\'\i }ci\IeC {\'o}}{3}{definition.1.14}}
\@writefile{default}{\indexentry{élsorozat}{3}}
\@writefile{default}{\indexentry{zárt élsorozat}{3}}
\@writefile{loe}{\contentsline {definition}{\numberline {1.15}Defin\IeC {\'\i }ci\IeC {\'o}}{3}{definition.1.15}}
\@writefile{default}{\indexentry{út}{3}}
\@writefile{loe}{\contentsline {definition}{\numberline {1.16}Defin\IeC {\'\i }ci\IeC {\'o}}{3}{definition.1.16}}
\@writefile{default}{\indexentry{kör}{3}}
\@writefile{loe}{\contentsline {definition}{\numberline {1.17}Defin\IeC {\'\i }ci\IeC {\'o}}{3}{definition.1.17}}
\@writefile{default}{\indexentry{összefüggő}{3}}
\@writefile{loe}{\contentsline {definition}{\numberline {1.18}Defin\IeC {\'\i }ci\IeC {\'o}}{3}{definition.1.18}}
\@writefile{default}{\indexentry{komponens}{3}}
\@writefile{loe}{\contentsline {theorem}{\numberline {1.2}T\IeC {\'e}tel}{4}{theorem.1.2}}
\@writefile{loe}{\contentsline {lemma}{\numberline {1.1}Lemma}{4}{lemma.1.1}}
\@writefile{loe}{\contentsline {lemma}{\numberline {1.2}Lemma}{4}{lemma.1.2}}
\@writefile{loe}{\contentsline {definition}{\numberline {1.19}Defin\IeC {\'\i }ci\IeC {\'o}}{4}{definition.1.19}}
\@writefile{default}{\indexentry{fák}{4}}
\@writefile{default}{\indexentry{levél}{4}}
\@writefile{loe}{\contentsline {theorem}{\numberline {1.3}T\IeC {\'e}tel}{4}{theorem.1.3}}
\@writefile{loe}{\contentsline {definition}{\numberline {1.20}Defin\IeC {\'\i }ci\IeC {\'o}}{4}{definition.1.20}}
\@writefile{default}{\indexentry{erdő}{4}}
\@writefile{loe}{\contentsline {theorem}{\numberline {1.4}T\IeC {\'e}tel}{4}{theorem.1.4}}
\@writefile{lof}{\contentsline {figure}{\numberline {5}{\ignorespaces Szaggatottan jel\IeC {\"o}lve a hosszabb utat \IeC {\'e}s a k\IeC {\"o}rt}}{4}{figure.5}}
\@writefile{loe}{\contentsline {definition}{\numberline {1.21}Defin\IeC {\'\i }ci\IeC {\'o}}{4}{definition.1.21}}
\@writefile{loe}{\contentsline {theorem}{\numberline {1.5}T\IeC {\'e}tel}{4}{theorem.1.5}}
\@writefile{toc}{\contentsline {section}{\numberline {2}S\IeC {\'\i }kbarajzolhat\IeC {\'o}s\IeC {\'a}g}{5}{section.2}}
\@writefile{loe}{\contentsline {definition}{\numberline {2.1}Defin\IeC {\'\i }ci\IeC {\'o}}{5}{definition.2.1}}
\@writefile{default}{\indexentry{síkbarajzolt}{5}}
\@writefile{loe}{\contentsline {definition}{\numberline {2.2}Defin\IeC {\'\i }ci\IeC {\'o}}{5}{definition.2.2}}
\@writefile{default}{\indexentry{síkbarjzolható}{5}}
\@writefile{loe}{\contentsline {definition}{\numberline {2.3}Defin\IeC {\'\i }ci\IeC {\'o}}{5}{definition.2.3}}
\@writefile{default}{\indexentry{tartomány}{5}}
\@writefile{lof}{\contentsline {figure}{\numberline {6}{\ignorespaces A $K_4$ s\IeC {\'\i }kbarajzolhat\IeC {\'o}, balra a s\IeC {\'\i }kbarajzolt v\IeC {\'a}ltozata, $t = 4$ tartom\IeC {\'a}nnyal.}}{5}{figure.6}}
\@writefile{loe}{\contentsline {theorem}{\numberline {2.1}T\IeC {\'e}tel\thmtformatoptarg {\textbf  {Euler-formula}/Euler-f\IeC {\'e}le poli\IeC {\'e}dert\IeC {\'e}tel}}{5}{theorem.2.1}}
\@writefile{default}{\indexentry{Euler-féle poliédertétel}{5}}
\@writefile{loe}{\contentsline {theorem}{\numberline {2.2}T\IeC {\'e}tel}{5}{theorem.2.2}}
\@writefile{default}{\indexentry{Kuratowski-gráf ($K_5$)}{5}}
\@writefile{default}{\indexentry{síkbarajzolhatóság sz. feltétele}{5}}
\@writefile{loe}{\contentsline {theorem}{\numberline {2.3}T\IeC {\'e}tel}{5}{theorem.2.3}}
\@writefile{loe}{\contentsline {theorem}{\numberline {2.4}T\IeC {\'e}tel}{5}{theorem.2.4}}
\@writefile{default}{\indexentry{Kuratowski-gráf ($K_{3,3}$)}{6}}
\@writefile{loe}{\contentsline {theorem}{\numberline {2.5}T\IeC {\'e}tel}{6}{theorem.2.5}}
\@writefile{lof}{\contentsline {figure}{\numberline {7}{\ignorespaces $K_{3,3}$-as Kuratowski-gr\IeC {\'a}f}}{6}{figure.7}}
\@writefile{loe}{\contentsline {definition}{\numberline {2.4}Defin\IeC {\'\i }ci\IeC {\'o}}{6}{definition.2.4}}
\@writefile{default}{\indexentry{topológikusan izomorf}{6}}
\@writefile{default}{\indexentry{Kuratowki-tétele}{6}}
\@writefile{loe}{\contentsline {theorem}{\numberline {2.6}T\IeC {\'e}tel\thmtformatoptarg {\textbf  {Kuratowski t\IeC {\'e}tele}}}{6}{theorem.2.6}}
\@writefile{loe}{\contentsline {theorem}{\numberline {2.7}T\IeC {\'e}tel}{6}{theorem.2.7}}
\@writefile{default}{\indexentry{Petersen-gráf}{6}}
\@writefile{lof}{\contentsline {figure}{\numberline {8}{\ignorespaces $K_{3,3}$ \IeC {\'e}s a Petersen-gr\IeC {\'a}f}}{6}{figure.8}}
\@writefile{default}{\indexentry{Fáry-Wagner tétel}{6}}
\@writefile{loe}{\contentsline {theorem}{\numberline {2.8}T\IeC {\'e}tel\thmtformatoptarg {F\IeC {\'a}ry-Wagner t\IeC {\'e}tel}}{6}{theorem.2.8}}
\@writefile{loe}{\contentsline {theorem}{\numberline {2.9}T\IeC {\'e}tel}{6}{theorem.2.9}}
\@writefile{lof}{\contentsline {figure}{\numberline {9}{\ignorespaces Sztereografikus projekci\IeC {\'o}}}{6}{figure.9}}
\@writefile{default}{\indexentry{sztereógrafikus projekció}{6}}
\@writefile{toc}{\contentsline {subsection}{\numberline {2.1}Du\IeC {\'a}lis}{7}{subsection.2.1}}
\@writefile{loe}{\contentsline {definition}{\numberline {2.5}Defin\IeC {\'\i }ci\IeC {\'o}}{7}{definition.2.5}}
\@writefile{default}{\indexentry{duális}{7}}
\@writefile{lof}{\contentsline {figure}{\numberline {10}{\ignorespaces }}{7}{figure.10}}
\@writefile{toc}{\contentsline {section}{\numberline {3}Euler \IeC {\'e}s Hamilton k\IeC {\"o}r\IeC {\"o}k}{8}{section.3}}
\@writefile{loe}{\contentsline {definition}{\numberline {3.1}Defin\IeC {\'\i }ci\IeC {\'o}}{8}{definition.3.1}}
\@writefile{default}{\indexentry{séta}{8}}
\@writefile{loe}{\contentsline {definition}{\numberline {3.2}Defin\IeC {\'\i }ci\IeC {\'o}}{8}{definition.3.2}}
\@writefile{default}{\indexentry{Euler-séta}{8}}
\@writefile{default}{\indexentry{Euler-körséta}{8}}
\@writefile{default}{\indexentry{Königsberg}{8}}
\@writefile{lof}{\contentsline {figure}{\numberline {11}{\ignorespaces K\IeC {\"o}nigsberg h\IeC {\'\i }djai}}{8}{figure.11}}
\@writefile{loe}{\contentsline {theorem}{\numberline {3.1}T\IeC {\'e}tel}{8}{theorem.3.1}}
\@writefile{lof}{\contentsline {figure}{\numberline {12}{\ignorespaces }}{8}{figure.12}}
\@writefile{loe}{\contentsline {theorem}{\numberline {3.2}T\IeC {\'e}tel}{8}{theorem.3.2}}
\@writefile{lof}{\contentsline {figure}{\numberline {13}{\ignorespaces Egy Euler-s\IeC {\'e}t\IeC {\'a}ban nem a kezd\IeC {\H o}- \IeC {\'e}s v\IeC {\'e}gpont (b\IeC {\'a}r lehetne), valamint egy lehets\IeC {\'e}ges kezd\IeC {\H o}pont}}{8}{figure.13}}
\@writefile{loe}{\contentsline {definition}{\numberline {3.3}Defin\IeC {\'\i }ci\IeC {\'o}}{9}{definition.3.3}}
\@writefile{default}{\indexentry{Hamilton-kör}{9}}
\@writefile{default}{\indexentry{Hamilton-út}{9}}
\@writefile{loe}{\contentsline {theorem}{\numberline {3.3}T\IeC {\'e}tel\thmtformatoptarg {Sz\IeC {\"u}ks\IeC {\'e}ges felt\IeC {\'e}tel}}{9}{theorem.3.3}}
\@writefile{default}{\indexentry{Ore-tétel}{9}}
\@writefile{loe}{\contentsline {theorem}{\numberline {3.4}T\IeC {\'e}tel\thmtformatoptarg {\textbf  {Ore-t\IeC {\'e}tel}}}{9}{theorem.3.4}}
\@writefile{lof}{\contentsline {figure}{\numberline {14}{\ignorespaces }}{9}{figure.14}}
\@writefile{default}{\indexentry{Dirac-tétele}{9}}
\@writefile{loe}{\contentsline {theorem}{\numberline {3.5}T\IeC {\'e}tel\thmtformatoptarg {\textbf  {Dirac-t\IeC {\'e}tele}}}{9}{theorem.3.5}}
\@writefile{toc}{\contentsline {section}{\numberline {4}Gr\IeC {\'a}fok kromatikus sz\IeC {\'a}ma}{10}{section.4}}
\@writefile{loe}{\contentsline {definition}{\numberline {4.1}Defin\IeC {\'\i }ci\IeC {\'o}}{10}{definition.4.1}}
\@writefile{default}{\indexentry{$\chi$}{10}}
\@writefile{loe}{\contentsline {definition}{\numberline {4.2}Defin\IeC {\'\i }ci\IeC {\'o}}{10}{definition.4.2}}
\@writefile{default}{\indexentry{kromatikus szám}{10}}
\@writefile{default}{\indexentry{$\omega$}{10}}
\@writefile{loe}{\contentsline {lemma}{\numberline {4.1}Lemma}{10}{lemma.4.1}}
\@writefile{default}{\indexentry{klikk}{10}}
\@writefile{default}{\indexentry{Négyszín-tétel}{10}}
\@writefile{loe}{\contentsline {theorem}{\numberline {4.1}T\IeC {\'e}tel\thmtformatoptarg {\textbf  {N\IeC {\'e}gysz\IeC {\'\i }n-t\IeC {\'e}tel}}}{10}{theorem.4.1}}
\@writefile{loe}{\contentsline {definition}{\numberline {4.3}Defin\IeC {\'\i }ci\IeC {\'o}}{10}{definition.4.3}}
\@writefile{default}{\indexentry{páros gráf}{10}}
\@writefile{loe}{\contentsline {theorem}{\numberline {4.2}T\IeC {\'e}tel}{10}{theorem.4.2}}
\@writefile{loe}{\contentsline {lemma}{\numberline {4.2}Lemma}{10}{lemma.4.2}}
\@writefile{default}{\indexentry{mohó-színezés}{10}}
\@writefile{loe}{\contentsline {theorem}{\numberline {4.3}T\IeC {\'e}tel}{10}{theorem.4.3}}
\@writefile{lof}{\contentsline {figure}{\numberline {15}{\ignorespaces Az els\IeC {\H o} h\IeC {\'a}rom Mycielski-gr\IeC {\'a}f}}{11}{figure.15}}
\@writefile{default}{\indexentry{Mycielski-konstrukció}{11}}
\@writefile{toc}{\contentsline {subsection}{\numberline {4.1}Intervallumgr\IeC {\'a}fok}{11}{subsection.4.1}}
\@writefile{loe}{\contentsline {definition}{\numberline {4.4}Defin\IeC {\'\i }ci\IeC {\'o}}{11}{definition.4.4}}
\@writefile{default}{\indexentry{intervallumgráf}{11}}
\@writefile{loe}{\contentsline {theorem}{\numberline {4.4}T\IeC {\'e}tel}{11}{theorem.4.4}}
\@writefile{loe}{\contentsline {theorem}{\numberline {4.5}T\IeC {\'e}tel}{11}{theorem.4.5}}
\@writefile{toc}{\contentsline {subsection}{\numberline {4.2}\IeC {\'E}lkromatikus sz\IeC {\'a}m}{12}{subsection.4.2}}
\@writefile{default}{\indexentry{$\chi_e$}{12}}
\@writefile{loe}{\contentsline {definition}{\numberline {4.5}Defin\IeC {\'\i }ci\IeC {\'o}}{12}{definition.4.5}}
\@writefile{default}{\indexentry{élkromatikus szám}{12}}
\@writefile{loe}{\contentsline {lemma}{\numberline {4.3}Lemma}{12}{lemma.4.3}}
\@writefile{default}{\indexentry{Vizing-tétele}{12}}
\@writefile{loe}{\contentsline {theorem}{\numberline {4.6}T\IeC {\'e}tel\thmtformatoptarg {\textbf  {Vizing-t\IeC {\'e}tele}}}{12}{theorem.4.6}}
\@writefile{lof}{\contentsline {figure}{\numberline {16}{\ignorespaces }}{12}{figure.16}}
\@writefile{default}{\indexentry{König-tétele (élszínezés)}{12}}
\@writefile{loe}{\contentsline {theorem}{\numberline {4.7}T\IeC {\'e}tel\thmtformatoptarg {\textbf  {K\IeC {\"o}nig-t\IeC {\'e}tele}}}{12}{theorem.4.7}}
\@writefile{loe}{\contentsline {lemma}{\numberline {4.4}Lemma}{12}{lemma.4.4}}
\@writefile{toc}{\contentsline {section}{\numberline {5}Nevezetes cs\IeC {\'u}cs- \IeC {\'e}s \IeC {\'e}lhalmazok}{13}{section.5}}
\@writefile{default}{\indexentry{$\alpha$}{13}}
\@writefile{loe}{\contentsline {definition}{\numberline {5.1}Defin\IeC {\'\i }ci\IeC {\'o}}{13}{definition.5.1}}
\@writefile{default}{\indexentry{független ponthalmaz}{13}}
\@writefile{loe}{\contentsline {lemma}{\numberline {5.1}Lemma}{13}{lemma.5.1}}
\@writefile{default}{\indexentry{$\nu$}{13}}
\@writefile{loe}{\contentsline {definition}{\numberline {5.2}Defin\IeC {\'\i }ci\IeC {\'o}}{13}{definition.5.2}}
\@writefile{default}{\indexentry{független élhalmaz}{13}}
\@writefile{default}{\indexentry{$\tau$}{13}}
\@writefile{loe}{\contentsline {definition}{\numberline {5.3}Defin\IeC {\'\i }ci\IeC {\'o}}{13}{definition.5.3}}
\@writefile{default}{\indexentry{lefogó ponthalmaz}{13}}
\@writefile{loe}{\contentsline {theorem}{\numberline {5.1}T\IeC {\'e}tel}{13}{theorem.5.1}}
\@writefile{default}{\indexentry{$\varrho$}{13}}
\@writefile{loe}{\contentsline {definition}{\numberline {5.4}Defin\IeC {\'\i }ci\IeC {\'o}}{13}{definition.5.4}}
\@writefile{default}{\indexentry{lefogó élhalmaz}{13}}
\@writefile{loe}{\contentsline {theorem}{\numberline {5.2}T\IeC {\'e}tel}{13}{theorem.5.2}}
\@writefile{default}{\indexentry{Gallai-tételek}{13}}
\@writefile{loe}{\contentsline {theorem}{\numberline {5.3}T\IeC {\'e}tel\thmtformatoptarg {\textbf  {Gallai I.}}}{13}{theorem.5.3}}
\@writefile{loe}{\contentsline {theorem}{\numberline {5.4}T\IeC {\'e}tel\thmtformatoptarg {\textbf  {Gallai II.}}}{13}{theorem.5.4}}
\@writefile{lof}{\contentsline {figure}{\numberline {17}{\ignorespaces }}{14}{figure.17}}
\@writefile{toc}{\contentsline {subsection}{\numberline {5.1}P\IeC {\'a}ros\IeC {\'\i }t\IeC {\'a}sok}{14}{subsection.5.1}}
\@writefile{loe}{\contentsline {definition}{\numberline {5.5}Defin\IeC {\'\i }ci\IeC {\'o}}{14}{definition.5.5}}
\@writefile{default}{\indexentry{párosítás}{14}}
\@writefile{default}{\indexentry{teljes párosítás}{14}}
\@writefile{loe}{\contentsline {definition}{\numberline {5.6}Defin\IeC {\'\i }ci\IeC {\'o}}{14}{definition.5.6}}
\@writefile{default}{\indexentry{alternáló út}{14}}
\@writefile{loe}{\contentsline {definition}{\numberline {5.7}Defin\IeC {\'\i }ci\IeC {\'o}}{14}{definition.5.7}}
\@writefile{default}{\indexentry{javítóút}{14}}
\@writefile{default}{\indexentry{javítóutas algoritmus}{14}}
\@writefile{lof}{\contentsline {figure}{\numberline {18}{\ignorespaces }}{14}{figure.18}}
\@writefile{default}{\indexentry{König-tétele (Páros gráfok)}{15}}
\@writefile{loe}{\contentsline {theorem}{\numberline {5.5}T\IeC {\'e}tel\thmtformatoptarg {\textbf  {K\IeC {\"o}nig-t\IeC {\'e}tele}}}{15}{theorem.5.5}}
\@writefile{loe}{\contentsline {lemma}{\numberline {5.2}Lemma\thmtformatoptarg {K\IeC {\"o}nig-t\IeC {\'e}tel k\IeC {\"o}vetkezm\IeC {\'e}nye}}{15}{lemma.5.2}}
\@writefile{default}{\indexentry{Hall-tétele}{15}}
\@writefile{loe}{\contentsline {theorem}{\numberline {5.6}T\IeC {\'e}tel\thmtformatoptarg {\textbf  {Hall-t\IeC {\'e}tele}}}{15}{theorem.5.6}}
\@writefile{default}{\indexentry{Frobenius-tétele}{15}}
\@writefile{loe}{\contentsline {theorem}{\numberline {5.7}T\IeC {\'e}tel\thmtformatoptarg {\textbf  {Frobenius-t\IeC {\'e}tele}}}{15}{theorem.5.7}}
\@writefile{default}{\indexentry{Tutte-tétele}{15}}
\@writefile{loe}{\contentsline {theorem}{\numberline {5.8}T\IeC {\'e}tel\thmtformatoptarg {\textbf  {Tutte-t\IeC {\'e}tele}}}{15}{theorem.5.8}}
\@writefile{toc}{\contentsline {section}{\numberline {6}H\IeC {\'a}l\IeC {\'o}zati folyamok}{16}{section.6}}
\@writefile{default}{\indexentry{hálózat}{16}}
\@writefile{loe}{\contentsline {definition}{\numberline {6.1}Defin\IeC {\'\i }ci\IeC {\'o}}{16}{definition.6.1}}
\@writefile{default}{\indexentry{forrás}{16}}
\@writefile{default}{\indexentry{nyelő}{16}}
\@writefile{loe}{\contentsline {definition}{\numberline {6.2}Defin\IeC {\'\i }ci\IeC {\'o}}{16}{definition.6.2}}
\@writefile{default}{\indexentry{folyam}{16}}
\@writefile{default}{\indexentry{telített folyam}{16}}
\@writefile{loe}{\contentsline {definition}{\numberline {6.3}Defin\IeC {\'\i }ci\IeC {\'o}}{16}{definition.6.3}}
\@writefile{default}{\indexentry{vágás}{16}}
\@writefile{loe}{\contentsline {lemma}{\numberline {6.1}Lemma}{16}{lemma.6.1}}
\@writefile{default}{\indexentry{egészértékűségi lemma}{16}}
\@writefile{loe}{\contentsline {lemma}{\numberline {6.2}Lemma\thmtformatoptarg {\textbf  {Eg\IeC {\'e}sz\IeC {\'e}rt\IeC {\'e}k\IeC {\H u}s\IeC {\'e}gi lemma}}}{16}{lemma.6.2}}
\@writefile{default}{\indexentry{Ford-Fulkenson tétel}{16}}
\@writefile{loe}{\contentsline {theorem}{\numberline {6.1}T\IeC {\'e}tel}{16}{theorem.6.1}}
\@writefile{default}{\indexentry{Edmons-Karp tétel}{16}}
\@writefile{loe}{\contentsline {theorem}{\numberline {6.2}T\IeC {\'e}tel}{16}{theorem.6.2}}
\@writefile{toc}{\contentsline {subsection}{\numberline {6.1}H\IeC {\'a}l\IeC {\'o}zat \IeC {\'a}ltal\IeC {\'a}nos\IeC {\'\i }t\IeC {\'a}s}{17}{subsection.6.1}}
\@writefile{lof}{\contentsline {figure}{\numberline {19}{\ignorespaces Forr\IeC {\'a}s \IeC {\'e}s nyel\IeC {\H o} \IeC {\'a}ltal\IeC {\'a}nos\IeC {\'\i }t\IeC {\'a}s}}{17}{figure.19}}
\@writefile{lof}{\contentsline {figure}{\numberline {20}{\ignorespaces Pontkapacit\IeC {\'a}s \IeC {\'e}s ir\IeC {\'a}ny\IeC {\'\i }tatlan \IeC {\'e}l esete}}{17}{figure.20}}
\@writefile{toc}{\contentsline {section}{\numberline {7}T\IeC {\"o}bbsz\IeC {\"o}r\IeC {\"o}s \IeC {\"o}sszef\IeC {\"u}gg\IeC {\H o}s\IeC {\'e}g}{18}{section.7}}
\@writefile{default}{\indexentry{élösszefüggő}{18}}
\@writefile{loe}{\contentsline {definition}{\numberline {7.1}Defin\IeC {\'\i }ci\IeC {\'o}}{18}{definition.7.1}}
\@writefile{default}{\indexentry{csúcsösszefüggő}{18}}
\@writefile{loe}{\contentsline {definition}{\numberline {7.2}Defin\IeC {\'\i }ci\IeC {\'o}}{18}{definition.7.2}}
\@writefile{default}{\indexentry{éldiszjunkt}{18}}
\@writefile{loe}{\contentsline {definition}{\numberline {7.3}Defin\IeC {\'\i }ci\IeC {\'o}}{18}{definition.7.3}}
\@writefile{default}{\indexentry{pontdiszjunkt}{18}}
\@writefile{loe}{\contentsline {definition}{\numberline {7.4}Defin\IeC {\'\i }ci\IeC {\'o}}{18}{definition.7.4}}
\@writefile{lof}{\contentsline {figure}{\numberline {21}{\ignorespaces $u$ \IeC {\'e}s $v$ k\IeC {\"o}z\IeC {\"o}tt l\IeC {\'e}tezik k\IeC {\'e}t \IeC {\'e}ldiszjunkt \IeC {\'u}t, de k\IeC {\'e}t pontdiszjunkt nincs}}{18}{figure.21}}
\@writefile{toc}{\contentsline {subsection}{\numberline {7.1}Menger-t\IeC {\'e}telek}{18}{subsection.7.1}}
\@writefile{loe}{\contentsline {definition}{\numberline {7.5}Defin\IeC {\'\i }ci\IeC {\'o}}{18}{definition.7.5}}
\@writefile{default}{\indexentry{$\lambda$}{18}}
\@writefile{default}{\indexentry{$\lambda'$}{18}}
\@writefile{default}{\indexentry{$\kappa$}{18}}
\@writefile{default}{\indexentry{$\kappa'$}{18}}
\@writefile{loe}{\contentsline {lemma}{\numberline {7.1}Lemma}{18}{lemma.7.1}}
\@writefile{loe}{\contentsline {lemma}{\numberline {7.2}Lemma}{18}{lemma.7.2}}
\@writefile{default}{\indexentry{Menger(irányított, éldiszjunkt utak)}{18}}
\@writefile{loe}{\contentsline {theorem}{\numberline {7.1}T\IeC {\'e}tel\thmtformatoptarg {Menger II.}}{19}{theorem.7.1}}
\@writefile{default}{\indexentry{Menger(irányítatlan, éldiszjunkt utak)}{19}}
\@writefile{loe}{\contentsline {theorem}{\numberline {7.2}T\IeC {\'e}tel\thmtformatoptarg {Menger I.}}{19}{theorem.7.2}}
\@writefile{default}{\indexentry{Menger(irányított, pontdiszjunkt utak)}{19}}
\@writefile{loe}{\contentsline {theorem}{\numberline {7.3}T\IeC {\'e}tel\thmtformatoptarg {Menger III.}}{19}{theorem.7.3}}
\@writefile{default}{\indexentry{Menger(irányítatlan, pontdiszjunkt utak)}{19}}
\@writefile{loe}{\contentsline {theorem}{\numberline {7.4}T\IeC {\'e}tel\thmtformatoptarg {Menger IV.}}{19}{theorem.7.4}}
\@writefile{default}{\indexentry{Menger(élösszefüggőség gráfban)}{19}}
\@writefile{loe}{\contentsline {theorem}{\numberline {7.5}T\IeC {\'e}tel\thmtformatoptarg {Menger V.}}{19}{theorem.7.5}}
\@writefile{default}{\indexentry{Menger(pontösszefüggőség gráfban)}{19}}
\@writefile{loe}{\contentsline {theorem}{\numberline {7.6}T\IeC {\'e}tel\thmtformatoptarg {Menger V.}}{19}{theorem.7.6}}
\@writefile{toc}{\contentsline {section}{\numberline {8}\IeC {\'A}ltal\IeC {\'a}nos algoritmusok}{20}{section.8}}
\@writefile{toc}{\contentsline {subsection}{\numberline {8.1}Sz\IeC {\'e}less\IeC {\'e}gi keres\IeC {\'e}s}{20}{subsection.8.1}}
\@writefile{toc}{\contentsline {subsection}{\numberline {8.2}Minim\IeC {\'a}lis fesz\IeC {\'\i }t\IeC {\H o}fa}{20}{subsection.8.2}}
\@writefile{default}{\indexentry{Kruskal-algoritmusa}{20}}
\@writefile{loe}{\contentsline {definition}{\numberline {8.1}Defin\IeC {\'\i }ci\IeC {\'o}\thmtformatoptarg {\textbf  {Kruskal-algoritmusa}}}{20}{definition.8.1}}
\@writefile{default}{\indexentry{mohó-algoritmus}{20}}
\@writefile{loe}{\contentsline {theorem}{\numberline {8.1}T\IeC {\'e}tel}{20}{theorem.8.1}}
\@writefile{loe}{\contentsline {theorem}{\numberline {8.2}T\IeC {\'e}tel}{21}{theorem.8.2}}
\@writefile{toc}{\contentsline {subsection}{\numberline {8.3}Gr\IeC {\'a}f reprezent\IeC {\'a}ci\IeC {\'o}}{21}{subsection.8.3}}
\@writefile{default}{\indexentry{szomszédsági mátrix}{21}}
\@writefile{lof}{\contentsline {figure}{\numberline {22}{\ignorespaces Ir\IeC {\'a}ny\IeC {\'\i }tott gr\IeC {\'a}f \IeC {\'e}s szomsz\IeC {\'e}ds\IeC {\'a}gi m\IeC {\'a}trixa}}{21}{figure.22}}
\@writefile{default}{\indexentry{éllista}{21}}
\@writefile{lof}{\contentsline {figure}{\numberline {23}{\ignorespaces \IeC {\'E}llist\IeC {\'a}s le\IeC {\'\i }r\IeC {\'a}s}}{21}{figure.23}}
\@writefile{toc}{\contentsline {section}{\numberline {9}Legr\IeC {\"o}videbb \IeC {\'u}t keres\IeC {\'e}se}{22}{section.9}}
\@writefile{toc}{\contentsline {subsection}{\numberline {9.1}Ford \IeC {\'e}s Floyd algoritmusa}{22}{subsection.9.1}}
\@writefile{toc}{\contentsline {subsection}{\numberline {9.2}Dijkstra algoritmusa}{22}{subsection.9.2}}
\@writefile{toc}{\contentsline {section}{T\IeC {\'a}rgymutat\IeC {\'o}}{23}{subsection.9.2}}
\bibcite{forras}{1}
\bibcite{eloadas}{2}
\bibcite{forras}{3}
\@writefile{toc}{\contentsline {section}{Hivatkoz\IeC {\'a}sok}{25}{section*.2}}
\@writefile{toc}{\contentsline {section}{Jegyzet}{25}{section*.3}}
